F1physiklabor_Messdaten/ALL0008/F0008CH2.CSV

Record Length,2.500000e+03,,  -0.320000000000,   0.24800,
Sample Interval,4.000000e-03,,  -0.316000000000,   0.25200,
Trigger Point,8.000000000000e+01,,  -0.312000000000,   0.25000,
,,,  -0.308000000000,   0.25000,
,,,  -0.304000000000,   0.25000,
,,,  -0.300000000000,   0.25000,
Source,CH2,,  -0.296000000000,   0.25000,
Vertical Units,V,,  -0.292000000000,   0.25000,
Vertical Scale,5.000000e-02,,  -0.288000000000,   0.25000,
Vertical Offset,-1.620000e-01,,  -0.284000000000,   0.25000,
Horizontal Units,s,,  -0.280000000000,   0.24800,
Horizontal Scale,1.000000e+00,,  -0.276000000000,   0.25200,
Pt Fmt,Y,,  -0.272000000000,   0.25000,
Yzero,0.000000e+00,,  -0.268000000000,   0.25000,
Probe Atten,1.000000e+00,,  -0.264000000000,   0.25000,
Model Number,TDS2004C,,  -0.260000000000,   0.25000,
Serial Number,061FR2,,  -0.256000000000,   0.25000,
Firmware Version,FV:v24.26,,  -0.252000000000,   0.25000,
,,,-00.248000000000,   0.25000,
,,,-00.244000000000,   0.25000,
,,,-00.240000000000,   0.25000,
,,,-00.236000000000,   0.25000,
,,,-00.232000000000,   0.25000,
,,,-00.228000000000,   0.25000,
,,,-00.224000000000,   0.25000,
,,,-00.220000000000,   0.25000,
,,,-00.216000000000,   0.25000,
,,,-00.212000000000,   0.25000,
,,,-00.208000000000,   0.25000,
,,,-00.204000000000,   0.25000,
,,,-00.200000000000,   0.24800,
,,,-00.196000000000,   0.24800,
,,,-00.192000000000,   0.25000,
,,,-00.188000000000,   0.24800,
,,,-00.184000000000,   0.24800,
,,,-00.180000000000,   0.25000,
,,,-00.176000000000,   0.25000,
,,,-00.172000000000,   0.24800,
,,,-00.168000000000,   0.24800,
,,,-00.164000000000,   0.25000,
,,,-00.160000000000,   0.24800,
,,,-00.156000000000,   0.24800,
,,,-00.152000000000,   0.25000,
,,,-00.148000000000,   0.24800,
,,,-00.144000000000,   0.24600,
,,,-00.140000000000,   0.24800,
,,,-00.136000000000,   0.25000,
,,,-00.132000000000,   0.24800,
,,,-00.128000000000,   0.24800,
,,,-00.124000000000,   0.25000,
,,,-00.120000000000,   0.25000,
,,,-00.116000000000,   0.24800,
,,,-00.112000000000,   0.24800,
,,,-00.108000000000,   0.24800,
,,,-00.104000000000,   0.24800,
,,,-00.100000000000,   0.24800,
,,,-00.096000000000,   0.25000,
,,,-00.092000000000,   0.24800,
,,,-00.088000000000,   0.24800,
,,,-00.084000000000,   0.25000,
,,,-00.080000000000,   0.24800,
,,,-00.076000000000,   0.24800,
,,,-00.072000000000,   0.25000,
,,,-00.068000000000,   0.25000,
,,,-00.064000000000,   0.25000,
,,,-00.060000000000,   0.24800,
,,,-00.056000000000,   0.25200,
,,,-00.052000000000,   0.25200,
,,,-00.048000000000,   0.24800,
,,,-00.044000000000,   0.24800,
,,,-00.040000000000,   0.25000,
,,,-00.036000000000,   0.24800,
,,,-00.032000000000,   0.25000,
,,,-00.028000000000,   0.25000,
,,,-00.024000000000,   0.25000,
,,,-00.020000000000,   0.25000,
,,,-00.016000000000,   0.25000,
,,,-00.012000000000,   0.25000,
,,,-00.008000000000,   0.25200,
,,,-00.004000000000,   0.24800,
,,,-00.000000000000,   0.25000,
,,,00.004000000000,   0.25000,
,,,00.008000000000,   0.24800,
,,,00.012000000000,   0.25200,
,,,00.016000000000,   0.25000,
,,,00.020000000000,   0.25000,
,,,00.024000000000,   0.25000,
,,,00.028000000000,   0.25000,
,,,00.032000000000,   0.25000,
,,,00.036000000000,   0.24800,
,,,00.040000000000,   0.25000,
,,,00.044000000000,   0.25000,
,,,00.048000000000,   0.24800,
,,,00.052000000000,   0.25000,
,,,00.056000000000,   0.25000,
,,,00.060000000000,   0.24800,
,,,00.064000000000,   0.24800,
,,,00.068000000000,   0.25000,
,,,00.072000000000,   0.24800,
,,,00.076000000000,   0.24800,
,,,00.080000000000,   0.24800,
,,,00.084000000000,   0.24800,
,,,00.088000000000,   0.24600,
,,,00.092000000000,   0.24800,
,,,00.096000000000,   0.24800,
,,,00.100000000000,   0.24600,
,,,00.104000000000,   0.24600,
,,,00.108000000000,   0.24800,
,,,00.112000000000,   0.24600,
,,,00.116000000000,   0.24400,
,,,00.120000000000,   0.24600,
,,,00.124000000000,   0.24600,
,,,00.128000000000,   0.24400,
,,,00.132000000000,   0.24200,
,,,00.136000000000,   0.24600,
,,,00.140000000000,   0.24200,
,,,00.144000000000,   0.24200,
,,,00.148000000000,   0.24200,
,,,00.152000000000,   0.24200,
,,,00.156000000000,   0.24000,
,,,00.160000000000,   0.24000,
,,,00.164000000000,   0.24200,
,,,00.168000000000,   0.23800,
,,,00.172000000000,   0.23800,
,,,00.176000000000,   0.23800,
,,,00.180000000000,   0.23800,
,,,00.184000000000,   0.23600,
,,,00.188000000000,   0.23400,
,,,00.192000000000,   0.23600,
,,,00.196000000000,   0.23200,
,,,00.200000000000,   0.23200,
,,,00.204000000000,   0.23200,
,,,00.208000000000,   0.23200,
,,,00.212000000000,   0.23000,
,,,00.216000000000,   0.23000,
,,,00.220000000000,   0.22800,
,,,00.224000000000,   0.22800,
,,,00.228000000000,   0.22600,
,,,00.232000000000,   0.22600,
,,,00.236000000000,   0.22400,
,,,00.240000000000,   0.22400,
,,,00.244000000000,   0.22400,
,,,00.248000000000,   0.22200,
,,,00.252000000000,   0.22000,
,,,00.256000000000,   0.22000,
,,,00.260000000000,   0.21800,
,,,00.264000000000,   0.21800,
,,,00.268000000000,   0.21600,
,,,00.272000000000,   0.21600,
,,,00.276000000000,   0.21600,
,,,00.280000000000,   0.21200,
,,,00.284000000000,   0.21200,
,,,00.288000000000,   0.21200,
,,,00.292000000000,   0.20800,
,,,00.296000000000,   0.20600,
,,,00.300000000000,   0.20800,
,,,00.304000000000,   0.20400,
,,,00.308000000000,   0.20200,
,,,00.312000000000,   0.20200,
,,,00.316000000000,   0.20000,
,,,00.320000000000,   0.19800,
,,,00.324000000000,   0.19800,
,,,00.328000000000,   0.19600,
,,,00.332000000000,   0.19400,
,,,00.336000000000,   0.19200,
,,,00.340000000000,   0.19200,
,,,00.344000000000,   0.19200,
,,,00.348000000000,   0.18800,
,,,00.352000000000,   0.18800,
,,,00.356000000000,   0.18600,
,,,00.360000000000,   0.18400,
,,,00.364000000000,   0.18200,
,,,00.368000000000,   0.18000,
,,,00.372000000000,   0.18000,
,,,00.376000000000,   0.17800,
,,,00.380000000000,   0.17400,
,,,00.384000000000,   0.17600,
,,,00.388000000000,   0.17200,
,,,00.392000000000,   0.17200,
,,,00.396000000000,   0.17200,
,,,00.400000000000,   0.16800,
,,,00.404000000000,   0.16800,
,,,00.408000000000,   0.16600,
,,,00.412000000000,   0.16200,
,,,00.416000000000,   0.16200,
,,,00.420000000000,   0.16200,
,,,00.424000000000,   0.16000,
,,,00.428000000000,   0.15800,
,,,00.432000000000,   0.15400,
,,,00.436000000000,   0.15600,
,,,00.440000000000,   0.15400,
,,,00.444000000000,   0.15200,
,,,00.448000000000,   0.14800,
,,,00.452000000000,   0.14800,
,,,00.456000000000,   0.14600,
,,,00.460000000000,   0.14600,
,,,00.464000000000,   0.14600,
,,,00.468000000000,   0.14200,
,,,00.472000000000,   0.14000,
,,,00.476000000000,   0.14000,
,,,00.480000000000,   0.13800,
,,,00.484000000000,   0.13800,
,,,00.488000000000,   0.13600,
,,,00.492000000000,   0.13400,
,,,00.496000000000,   0.13200,
,,,00.500000000000,   0.13200,
,,,00.504000000000,   0.13000,
,,,00.508000000000,   0.12800,
,,,00.512000000000,   0.12600,
,,,00.516000000000,   0.12600,
,,,00.520000000000,   0.12400,
,,,00.524000000000,   0.12200,
,,,00.528000000000,   0.12200,
,,,00.532000000000,   0.12200,
,,,00.536000000000,   0.12000,
,,,00.540000000000,   0.11800,
,,,00.544000000000,   0.11800,
,,,00.548000000000,   0.11400,
,,,00.552000000000,   0.11400,
,,,00.556000000000,   0.11200,
,,,00.560000000000,   0.11200,
,,,00.564000000000,   0.10800,
,,,00.568000000000,   0.10800,
,,,00.572000000000,   0.10800,
,,,00.576000000000,   0.10600,
,,,00.580000000000,   0.10400,
,,,00.584000000000,   0.10400,
,,,00.588000000000,   0.10200,
,,,00.592000000000,   0.10000,
,,,00.596000000000,   0.09800,
,,,00.600000000000,   0.09800,
,,,00.604000000000,   0.09600,
,,,00.608000000000,   0.09400,
,,,00.612000000000,   0.09400,
,,,00.616000000000,   0.09400,
,,,00.620000000000,   0.09000,
,,,00.624000000000,   0.09000,
,,,00.628000000000,   0.09000,
,,,00.632000000000,   0.08800,
,,,00.636000000000,   0.08600,
,,,00.640000000000,   0.08800,
,,,00.644000000000,   0.08800,
,,,00.648000000000,   0.08600,
,,,00.652000000000,   0.08600,
,,,00.656000000000,   0.08400,
,,,00.660000000000,   0.08200,
,,,00.664000000000,   0.08000,
,,,00.668000000000,   0.08200,
,,,00.672000000000,   0.08000,
,,,00.676000000000,   0.08000,
,,,00.680000000000,   0.08000,
,,,00.684000000000,   0.07800,
,,,00.688000000000,   0.07600,
,,,00.692000000000,   0.07600,
,,,00.696000000000,   0.07600,
,,,00.700000000000,   0.07600,
,,,00.704000000000,   0.07400,
,,,00.708000000000,   0.07400,
,,,00.712000000000,   0.07400,
,,,00.716000000000,   0.07200,
,,,00.720000000000,   0.07200,
,,,00.724000000000,   0.07200,
,,,00.728000000000,   0.07000,
,,,00.732000000000,   0.07000,
,,,00.736000000000,   0.07000,
,,,00.740000000000,   0.07000,
,,,00.744000000000,   0.07000,
,,,00.748000000000,   0.07000,
,,,00.752000000000,   0.07000,
,,,00.756000000000,   0.07000,
,,,00.760000000000,   0.06800,
,,,00.764000000000,   0.06800,
,,,00.768000000000,   0.06600,
,,,00.772000000000,   0.06600,
,,,00.776000000000,   0.06600,
,,,00.780000000000,   0.06800,
,,,00.784000000000,   0.06600,
,,,00.788000000000,   0.06600,
,,,00.792000000000,   0.06600,
,,,00.796000000000,   0.06400,
,,,00.800000000000,   0.06600,
,,,00.804000000000,   0.06600,
,,,00.808000000000,   0.06600,
,,,00.812000000000,   0.06600,
,,,00.816000000000,   0.06600,
,,,00.820000000000,   0.06600,
,,,00.824000000000,   0.06600,
,,,00.828000000000,   0.06400,
,,,00.832000000000,   0.06600,
,,,00.836000000000,   0.06400,
,,,00.840000000000,   0.06600,
,,,00.844000000000,   0.06800,
,,,00.848000000000,   0.06600,
,,,00.852000000000,   0.06400,
,,,00.856000000000,   0.06400,
,,,00.860000000000,   0.06600,
,,,00.864000000000,   0.06400,
,,,00.868000000000,   0.06600,
,,,00.872000000000,   0.06800,
,,,00.876000000000,   0.06800,
,,,00.880000000000,   0.06600,
,,,00.884000000000,   0.06600,
,,,00.888000000000,   0.07000,
,,,00.892000000000,   0.06800,
,,,00.896000000000,   0.07000,
,,,00.900000000000,   0.07000,
,,,00.904000000000,   0.06800,
,,,00.908000000000,   0.07000,
,,,00.912000000000,   0.07000,
,,,00.916000000000,   0.07000,
,,,00.920000000000,   0.07200,
,,,00.924000000000,   0.07200,
,,,00.928000000000,   0.07200,
,,,00.932000000000,   0.07400,
,,,00.936000000000,   0.07200,
,,,00.940000000000,   0.07800,
,,,00.944000000000,   0.07600,
,,,00.948000000000,   0.07600,
,,,00.952000000000,   0.07600,
,,,00.956000000000,   0.07800,
,,,00.960000000000,   0.07600,
,,,00.964000000000,   0.07800,
,,,00.968000000000,   0.08000,
,,,00.972000000000,   0.08000,
,,,00.976000000000,   0.08000,
,,,00.980000000000,   0.08200,
,,,00.984000000000,   0.08600,
,,,00.988000000000,   0.08600,
,,,00.992000000000,   0.08600,
,,,00.996000000000,   0.08800,
,,,01.000000000000,   0.08800,
,,,01.004000000000,   0.08800,
,,,01.008000000000,   0.09000,
,,,01.012000000000,   0.09200,
,,,01.016000000000,   0.09200,
,,,01.020000000000,   0.09400,
,,,01.024000000000,   0.09600,
,,,01.028000000000,   0.09600,
,,,01.032000000000,   0.09800,
,,,01.036000000000,   0.10200,
,,,01.040000000000,   0.10200,
,,,01.044000000000,   0.10400,
,,,01.048000000000,   0.10600,
,,,01.052000000000,   0.10600,
,,,01.056000000000,   0.10800,
,,,01.060000000000,   0.11200,
,,,01.064000000000,   0.11400,
,,,01.068000000000,   0.11200,
,,,01.072000000000,   0.11400,
,,,01.076000000000,   0.11600,
,,,01.080000000000,   0.11800,
,,,01.084000000000,   0.12000,
,,,01.088000000000,   0.12000,
,,,01.092000000000,   0.12200,
,,,01.096000000000,   0.12400,
,,,01.100000000000,   0.12400,
,,,01.104000000000,   0.12800,
,,,01.108000000000,   0.13000,
,,,01.112000000000,   0.13000,
,,,01.116000000000,   0.13400,
,,,01.120000000000,   0.13600,
,,,01.124000000000,   0.13600,
,,,01.128000000000,   0.13800,
,,,01.132000000000,   0.14000,
,,,01.136000000000,   0.14000,
,,,01.140000000000,   0.14200,
,,,01.144000000000,   0.14600,
,,,01.148000000000,   0.14800,
,,,01.152000000000,   0.14600,
,,,01.156000000000,   0.15000,
,,,01.160000000000,   0.15400,
,,,01.164000000000,   0.15200,
,,,01.168000000000,   0.15400,
,,,01.172000000000,   0.15600,
,,,01.176000000000,   0.15800,
,,,01.180000000000,   0.15800,
,,,01.184000000000,   0.15800,
,,,01.188000000000,   0.16400,
,,,01.192000000000,   0.16400,
,,,01.196000000000,   0.16400,
,,,01.200000000000,   0.16800,
,,,01.204000000000,   0.16800,
,,,01.208000000000,   0.16800,
,,,01.212000000000,   0.17000,
,,,01.216000000000,   0.17200,
,,,01.220000000000,   0.17400,
,,,01.224000000000,   0.17400,
,,,01.228000000000,   0.17800,
,,,01.232000000000,   0.17800,
,,,01.236000000000,   0.18000,
,,,01.240000000000,   0.18000,
,,,01.244000000000,   0.18200,
,,,01.248000000000,   0.18200,
,,,01.252000000000,   0.18600,
,,,01.256000000000,   0.18600,
,,,01.260000000000,   0.18600,
,,,01.264000000000,   0.18600,
,,,01.268000000000,   0.19000,
,,,01.272000000000,   0.19000,
,,,01.276000000000,   0.19200,
,,,01.280000000000,   0.19200,
,,,01.284000000000,   0.19400,
,,,01.288000000000,   0.19400,
,,,01.292000000000,   0.19600,
,,,01.296000000000,   0.19800,
,,,01.300000000000,   0.19800,
,,,01.304000000000,   0.19600,
,,,01.308000000000,   0.20000,
,,,01.312000000000,   0.20200,
,,,01.316000000000,   0.20000,
,,,01.320000000000,   0.20200,
,,,01.324000000000,   0.20400,
,,,01.328000000000,   0.20200,
,,,01.332000000000,   0.20400,
,,,01.336000000000,   0.20600,
,,,01.340000000000,   0.20800,
,,,01.344000000000,   0.20600,
,,,01.348000000000,   0.20800,
,,,01.352000000000,   0.21000,
,,,01.356000000000,   0.20800,
,,,01.360000000000,   0.21000,
,,,01.364000000000,   0.21200,
,,,01.368000000000,   0.21000,
,,,01.372000000000,   0.20800,
,,,01.376000000000,   0.21000,
,,,01.380000000000,   0.21000,
,,,01.384000000000,   0.21000,
,,,01.388000000000,   0.21200,
,,,01.392000000000,   0.21400,
,,,01.396000000000,   0.21200,
,,,01.400000000000,   0.21400,
,,,01.404000000000,   0.21400,
,,,01.408000000000,   0.21400,
,,,01.412000000000,   0.21200,
,,,01.416000000000,   0.21200,
,,,01.420000000000,   0.21400,
,,,01.424000000000,   0.21200,
,,,01.428000000000,   0.21000,
,,,01.432000000000,   0.21400,
,,,01.436000000000,   0.21200,
,,,01.440000000000,   0.21200,
,,,01.444000000000,   0.21400,
,,,01.448000000000,   0.21400,
,,,01.452000000000,   0.21400,
,,,01.456000000000,   0.21400,
,,,01.460000000000,   0.21400,
,,,01.464000000000,   0.21400,
,,,01.468000000000,   0.21200,
,,,01.472000000000,   0.21200,
,,,01.476000000000,   0.21200,
,,,01.480000000000,   0.21000,
,,,01.484000000000,   0.21000,
,,,01.488000000000,   0.21000,
,,,01.492000000000,   0.21000,
,,,01.496000000000,   0.20800,
,,,01.500000000000,   0.20800,
,,,01.504000000000,   0.21000,
,,,01.508000000000,   0.20800,
,,,01.512000000000,   0.20800,
,,,01.516000000000,   0.21000,
,,,01.520000000000,   0.20800,
,,,01.524000000000,   0.20800,
,,,01.528000000000,   0.20800,
,,,01.532000000000,   0.20800,
,,,01.536000000000,   0.20400,
,,,01.540000000000,   0.20400,
,,,01.544000000000,   0.20400,
,,,01.548000000000,   0.20600,
,,,01.552000000000,   0.20200,
,,,01.556000000000,   0.20200,
,,,01.560000000000,   0.20000,
,,,01.564000000000,   0.20200,
,,,01.568000000000,   0.20200,
,,,01.572000000000,   0.20000,
,,,01.576000000000,   0.20000,
,,,01.580000000000,   0.20000,
,,,01.584000000000,   0.20000,
,,,01.588000000000,   0.20000,
,,,01.592000000000,   0.19600,
,,,01.596000000000,   0.19600,
,,,01.600000000000,   0.19400,
,,,01.604000000000,   0.19200,
,,,01.608000000000,   0.19200,
,,,01.612000000000,   0.19200,
,,,01.616000000000,   0.19000,
,,,01.620000000000,   0.19000,
,,,01.624000000000,   0.19000,
,,,01.628000000000,   0.19000,
,,,01.632000000000,   0.18800,
,,,01.636000000000,   0.18800,
,,,01.640000000000,   0.18800,
,,,01.644000000000,   0.18600,
,,,01.648000000000,   0.18600,
,,,01.652000000000,   0.18400,
,,,01.656000000000,   0.18200,
,,,01.660000000000,   0.18000,
,,,01.664000000000,   0.18000,
,,,01.668000000000,   0.17800,
,,,01.672000000000,   0.17800,
,,,01.676000000000,   0.17400,
,,,01.680000000000,   0.17600,
,,,01.684000000000,   0.17400,
,,,01.688000000000,   0.17200,
,,,01.692000000000,   0.17400,
,,,01.696000000000,   0.17200,
,,,01.700000000000,   0.17000,
,,,01.704000000000,   0.17000,
,,,01.708000000000,   0.17000,
,,,01.712000000000,   0.16600,
,,,01.716000000000,   0.16600,
,,,01.720000000000,   0.16400,
,,,01.724000000000,   0.16200,
,,,01.728000000000,   0.16000,
,,,01.732000000000,   0.16000,
,,,01.736000000000,   0.15800,
,,,01.740000000000,   0.15600,
,,,01.744000000000,   0.15600,
,,,01.748000000000,   0.15800,
,,,01.752000000000,   0.15600,
,,,01.756000000000,   0.15400,
,,,01.760000000000,   0.15400,
,,,01.764000000000,   0.15400,
,,,01.768000000000,   0.15000,
,,,01.772000000000,   0.15000,
,,,01.776000000000,   0.14800,
,,,01.780000000000,   0.14600,
,,,01.784000000000,   0.14400,
,,,01.788000000000,   0.14600,
,,,01.792000000000,   0.14400,
,,,01.796000000000,   0.14200,
,,,01.800000000000,   0.14000,
,,,01.804000000000,   0.14000,
,,,01.808000000000,   0.14000,
,,,01.812000000000,   0.14000,
,,,01.816000000000,   0.14000,
,,,01.820000000000,   0.13800,
,,,01.824000000000,   0.13600,
,,,01.828000000000,   0.13600,
,,,01.832000000000,   0.13400,
,,,01.836000000000,   0.13200,
,,,01.840000000000,   0.13200,
,,,01.844000000000,   0.13000,
,,,01.848000000000,   0.12800,
,,,01.852000000000,   0.12800,
,,,01.856000000000,   0.12600,
,,,01.860000000000,   0.12600,
,,,01.864000000000,   0.12400,
,,,01.868000000000,   0.12400,
,,,01.872000000000,   0.12600,
,,,01.876000000000,   0.12200,
,,,01.880000000000,   0.12400,
,,,01.884000000000,   0.12400,
,,,01.888000000000,   0.12000,
,,,01.892000000000,   0.12000,
,,,01.896000000000,   0.12000,
,,,01.900000000000,   0.11800,
,,,01.904000000000,   0.11800,
,,,01.908000000000,   0.11600,
,,,01.912000000000,   0.11400,
,,,01.916000000000,   0.11400,
,,,01.920000000000,   0.11400,
,,,01.924000000000,   0.11400,
,,,01.928000000000,   0.11200,
,,,01.932000000000,   0.11400,
,,,01.936000000000,   0.11400,
,,,01.940000000000,   0.11200,
,,,01.944000000000,   0.11200,
,,,01.948000000000,   0.11000,
,,,01.952000000000,   0.11000,
,,,01.956000000000,   0.10800,
,,,01.960000000000,   0.10600,
,,,01.964000000000,   0.10600,
,,,01.968000000000,   0.10600,
,,,01.972000000000,   0.10200,
,,,01.976000000000,   0.10400,
,,,01.980000000000,   0.10400,
,,,01.984000000000,   0.10200,
,,,01.988000000000,   0.10400,
,,,01.992000000000,   0.10600,
,,,01.996000000000,   0.10400,
,,,02.000000000000,   0.10200,
,,,02.004000000000,   0.10600,
,,,02.008000000000,   0.10200,
,,,02.012000000000,   0.10200,
,,,02.016000000000,   0.10200,
,,,02.020000000000,   0.10400,
,,,02.024000000000,   0.10200,
,,,02.028000000000,   0.10000,
,,,02.032000000000,   0.10200,
,,,02.036000000000,   0.10200,
,,,02.040000000000,   0.10200,
,,,02.044000000000,   0.10200,
,,,02.048000000000,   0.10400,
,,,02.052000000000,   0.10400,
,,,02.056000000000,   0.10400,
,,,02.060000000000,   0.10600,
,,,02.064000000000,   0.10800,
,,,02.068000000000,   0.10600,
,,,02.072000000000,   0.10800,
,,,02.076000000000,   0.10800,
,,,02.080000000000,   0.10600,
,,,02.084000000000,   0.10600,
,,,02.088000000000,   0.10800,
,,,02.092000000000,   0.10800,
,,,02.096000000000,   0.10800,
,,,02.100000000000,   0.11200,
,,,02.104000000000,   0.11000,
,,,02.108000000000,   0.11200,
,,,02.112000000000,   0.11400,
,,,02.116000000000,   0.11400,
,,,02.120000000000,   0.11600,
,,,02.124000000000,   0.11600,
,,,02.128000000000,   0.11800,
,,,02.132000000000,   0.11800,
,,,02.136000000000,   0.11600,
,,,02.140000000000,   0.11800,
,,,02.144000000000,   0.11800,
,,,02.148000000000,   0.11800,
,,,02.152000000000,   0.11800,
,,,02.156000000000,   0.12000,
,,,02.160000000000,   0.12000,
,,,02.164000000000,   0.12200,
,,,02.168000000000,   0.12400,
,,,02.172000000000,   0.12400,
,,,02.176000000000,   0.12400,
,,,02.180000000000,   0.12600,
,,,02.184000000000,   0.12800,
,,,02.188000000000,   0.12800,
,,,02.192000000000,   0.12800,
,,,02.196000000000,   0.12800,
,,,02.200000000000,   0.12800,
